########## descriptionCheck ##########

        No warnings or errors detected.



L
Second thing IS x There is a first_thing and a second_thing here.

> 

Do you want to UNDO, RESTART, RESTORE or QUIT ? 
