########## prgnam ##########

        No warnings or errors detected.
        1 informational message(s).



L

> save
Enter file name to save in (./prgnam.sav) : 

> 

Do you want to UNDO, RESTART, RESTORE or QUIT ? 
