-- talk.i
-- Library version 0.5.0

-- 0.4.1 - converted to ALANv3


-- for verbs like 'ask' and 'tell' you need to individually program
-- responses to each topic (ie 'obj') for any actor who you want to
-- respond to that topic.  Remember to use the 'when' clause so that
-- actors only respond when they're being talked to (and not when
-- they're the *subject* of the conversation!)  see Section 3.7.1 -
-- 'verb alternatives' - in the Alan manual.  eg:
--
-- Actor simon
--    ....
--    Verb ask
--       When act
--           Does Only
--              If topic = ball Then
--                  "Simon replies ""I love playing ball sports. Football is
--                   my favourite."""
--              Elsif obj = fred Then
--                  .....
--              Else
--                  "Simon shrugs. ""Sorry, I don't know anything about 
--                  that."""
--              End If.
--     End Verb ask.
--     ....
-- End Actor Simon.


Add To Every thing
  Is
    Not can_talk.
End Add To thing.

Add To Every actor 
  Is
     can_talk.
End Add To actor.


Synonyms
  yell = shout.
  scream = shout.

Syntax
  shout = shout.

Verb shout
  Does
    "You make a lot of noise..."
End Verb.



Syntax
  say_word = 'say' (topic)!
    Where topic Isa thing
      Else "You can't say that."

Add To Every thing
  Verb say_word
    Does
      "$o? That's a nice word!"
  End Verb.
End Add To.



Syntax
  say_to = 'say' (topic)! 'to' (act)
    Where topic Isa thing
      Else "You can't say that."
    And act Isa thing
      Else "You can't talk to that."

Add To Every thing
  Verb say_to
    When act
      Check act Has can_talk
	Else "You can't talk to that."
      Does
	Say The act. "doesn't seem interested."
  End Verb.
End Add To.



Syntax
  ask = ask (act) about (topic)!
    Where topic ISA THING 
      Else "You can't ask about that."
    And act Isa thing
      Else "You can't talk to that."

Add To Every thing
  Verb ask
    When act
      Check act Has can_talk
        Else "You can't talk to that."
      Does
	Say The act. "says ""I don't know anything about" Say The topic. "!"""
  End Verb.
End Add To.



Syntax
  talk_to = talk 'to' (act) about (topic)!
    Where topic Isa thing
      Else "You can't ask about that."
    And act Isa thing
      Else "You can't talk to that."
  talk_to = tell (act) about (topic)!.

Add To Every thing
  Verb talk_to
    When  topic
      Check act Has can_talk
	Else "You can't talk to that."
      Does
	"""I don't think I need to know about" Say The topic. "$$,"" says"
	Say The act. "."
  End Verb.
End Add To.


Syntax
  talk_to_a = talk 'to' (act)
    Where act Isa thing
      Else "You can't talk to that."

Add To Every thing
  Verb talk_to_a
    Check act Has can_talk
      Else "You can't talk to that."
    Does
      Say The act. "looks at you, seemingly wondering if you have
	  anything specific to talk about."
  End Verb.
End Add To.
